<svg id="Layer_1" data-name="Layer 1" xmlns="http://www.w3.org/2000/svg" viewBox="0 0 23.58 23.58">
    <defs>
        <style>.cls-1{fill:none;stroke-miterlimit:10;stroke-width:2px;}</style>
    </defs>
    <title>close</title>
    <line class="cls-1" x1="22.87" y1="0.71" x2="0.71" y2="22.87"/>
    <line class="cls-1" x1="0.71" y1="0.71" x2="22.87" y2="22.87"/>
</svg>