<svg id="Layer_1" data-name="Layer 1" xmlns="http://www.w3.org/2000/svg" viewBox="0 0 16 16">

    <title>instagram</title>
    <circle  cx="8" cy="7.97" r="2.03"/>
    <path
          d="M14.71,1.32A4.59,4.59,0,0,0,11.32,0H4.68A4.42,4.42,0,0,0,0,4.68v6.61a4.64,4.64,0,0,0,1.35,3.45A4.7,4.7,0,0,0,4.71,16h6.58a4.76,4.76,0,0,0,3.39-1.26A4.62,4.62,0,0,0,16,11.33V4.68A4.62,4.62,0,0,0,14.71,1.32ZM8,12A4.07,4.07,0,1,1,12.06,8,4.07,4.07,0,0,1,8,12Zm4.59-7.31a1.28,1.28,0,1,1,1.28-1.28A1.29,1.29,0,0,1,12.59,4.73Z"/>
</svg>